{
    "_id": "BD_PY_0061",
    "rel-link_id": "5ee9250c761cf87371cf329f",
    "question_name": "change_for_snacks",
    "question_path": "performance/Python/change_for_snacks",
    "question_type": "performance_dev",
    "topic": "Python",
    "disabled": false,
    "provisioned": 0,
    "attempts": 0,
    "passes": 0,
    "failures": 0,
    "question": {
        "filepath": "performance/Python/change_for_snacks/testfile.py"
    },
    "support_files": [],
    "tests": [
        {
            "filepath": "performance/Python/change_for_snacks/runtests.py"
        }
    ],
    "solution": "performance/Python/change_for_snacks/Solution/testfile.py",
    "dependencies": {
        "libraries": [],
        "req_software": [
            "Python 3.7"
        ]
    }
}