{
    "_id": "BD_PY_0078",
    "rel-link_id": "5ee9250c761cf87371cf32b7",
    "question_name": "html_tags_count",
    "question_path": "performance/Python/html_tags_count",
    "question_type": "performance_dev",
    "topic": "Python",
    "disabled": false,
    "provisioned": 0,
    "attempts": 0,
    "passes": 0,
    "failures": 0,
    "question": {
        "filepath": "performance/Python/html_tags_count/testfile.py"
    },
    "support_files": [
        "performance/Python/html_tags_count/data.py"
    ],
    "tests": [
        {
            "filepath": "performance/Python/html_tags_count/runtests.py"
        }
    ],
    "solution": "performance/Python/html_tags_count/Solution/testfile.py",
    "dependencies": {
        "libraries": [],
        "req_software": [
            "Python 3.7"
        ]
    }
}